Crosspoint listing for C:\Users\tmcgrath\Documents\MyProjects\RockCliff Energy\Large Conference\Crestron\RCE - Large Conference v0_1.SMW

Note:  Crosspoint symbols with EquipID or ControlID set to 0d are not routeable.

Equipment Crosspoint Routing.                                                                       EquipID
===========================================================================================================
S-1.4.5.11.8                                                                                        101
S-1.4.5.12.7.4                                                                                      201
S-1.4.5.12.8.4                                                                                      202
S-1.4.5.12.9.4                                                                                      203
S-1.4.5.12.10.4                                                                                     204
S-1.4.5.12.11.4                                                                                     205
S-1.4.5.12.12.4                                                                                     206
S-1.4.5.12.13.4                                                                                     207
S-1.4.5.12.14.4                                                                                     208
S-1.4.5.13.7.4                                                                                      301
S-1.4.5.13.8.4                                                                                      302
S-1.4.5.13.9.4                                                                                      303
S-1.4.5.13.10.4                                                                                     304
S-1.4.5.13.11.4                                                                                     305
S-1.4.5.13.12.4                                                                                     306
S-1.4.5.13.13.4                                                                                     307
S-1.4.5.13.14.4                                                                                     308
S-1.4.5.14.7.4                                                                                      401
S-1.4.5.14.8.4                                                                                      402
S-1.4.5.14.9.4                                                                                      403
S-1.4.5.14.10.4                                                                                     404
S-1.4.5.14.11.4                                                                                     405
S-1.4.5.15.7.4                                                                                      501
S-1.4.5.15.8.4                                                                                      502
S-1.4.5.15.9.4                                                                                      503
S-1.4.5.15.10.4                                                                                     504
S-1.4.5.16.7.4                                                                                      601
S-1.4.5.16.8.4                                                                                      602
S-1.4.5.16.9.4                                                                                      603
S-1.4.5.16.10.4                                                                                     604
S-1.4.5.16.11.4                                                                                     605
S-1.4.5.16.12.4                                                                                     606
S-1.4.5.16.13.4                                                                                     607
S-1.4.5.16.14.4                                                                                     608
S-1.4.5.16.15.4                                                                                     609
S-1.4.5.16.16.4                                                                                     610
S-1.4.5.16.17.4                                                                                     611
S-1.4.5.16.18.4                                                                                     612
S-1.4.5.16.19.4                                                                                     613
S-1.4.5.16.20.4                                                                                     614
S-1.4.5.16.21.4                                                                                     615
S-1.4.5.16.22.4                                                                                     616
S-1.4.5.17.7.4                                                                                      701
S-1.4.5.17.8.4                                                                                      702
S-1.4.5.17.9.4                                                                                      703
S-1.4.5.17.10.4                                                                                     704
S-1.4.5.18.7.4                                                                                      801
S-1.4.5.18.8.4                                                                                      802
S-1.4.5.18.9.4                                                                                      803
S-1.4.5.18.10.4                                                                                     804
S-1.4.5.18.11.4                                                                                     805
S-1.4.5.18.12.4                                                                                     806
S-1.4.5.18.13.4                                                                                     807
S-1.4.5.18.14.4                                                                                     808
S-1.4.5.18.15.4                                                                                     809
S-1.4.5.18.16.4                                                                                     810
S-1.4.5.18.17.4                                                                                     811
S-1.4.5.18.18.4                                                                                     812
S-1.4.5.18.19.4                                                                                     813
S-1.4.5.18.20.4                                                                                     814
S-1.4.5.18.21.4                                                                                     815
S-1.4.5.18.22.4                                                                                     816
S-2.1.4.1.7.1                                                                                       2101
S-2.1.4.1.8.1                                                                                       2102
S-2.1.1.8.1                                                                                         6001

Control Crosspoint Routing.                                                                         ControlID
=============================================================================================================
S-1.4.5.10                                                                                          1001
S-2.1.4.1.6                                                                                         2100
S-2.1.1.5                                                                                           6000

